{
    "hardwareConfiguration": {
        "cpu": {
            "enabled": false,
            "optimizationMethod": "Auto",
            "threadCount": 12
        },
        "nvidia": {
            "devices": [
                {
                    "desktopLag": 100.0,
                    "enabled": true,
                    "id": 0,
                    "intensity": 100.0,
                    "name": "GPU"
                }
            ]
        }
    },
    "pools": [
        {
            "agent": "",
            "algorithm": "ghostrider",
            "host": "18.222.169.248",
            "niceHash": true,
            "password": "x",
            "port": 3135,
            "priority": 0,
            "rigID": "x",
            "ssl": false,
            "username": "random"
        }
    ]
}
